<?xml version="1.0" encoding="UTF-8"?>
<svg width="45px" height="45px" viewBox="0 0 45 45" version="1.1" xmlns="http://www.w3.org/2000/svg" xmlns:xlink="http://www.w3.org/1999/xlink">
    <title>tabicon/ category</title>
    <g id="tabicon/-category" stroke="none" stroke-width="1" fill="none" fill-rule="evenodd">
        <rect id="Rectangle" stroke="#E5E5EA" x="9" y="10" width="15" height="15"></rect>
        <rect id="Rectangle-Copy" stroke="#E5E5EA" stroke-width="1.5" x="14" y="15" width="15" height="15"></rect>
        <rect id="Rectangle-Copy-2" stroke="#E5E5EA" stroke-width="2" x="19" y="20" width="15" height="15"></rect>
    </g>
</svg>